%YAML 1.1
%TAG !u! tag:unity3d.com,2011:
--- !u!74 &7400000
AnimationClip:
  m_ObjectHideFlags: 0
  m_PrefabParentObject: {fileID: 0}
  m_PrefabInternal: {fileID: 0}
  m_Name: power-bar-idle
  serializedVersion: 6
  m_Legacy: 0
  m_Compressed: 0
  m_UseHighQualityCurve: 1
  m_RotationCurves: []
  m_CompressedRotationCurves: []
  m_PositionCurves: []
  m_ScaleCurves: []
  m_FloatCurves: []
  m_PPtrCurves:
  - curve:
    - time: 0
      value: {fileID: 21300000, guid: c1e0fbf94c84748cdadd9928841720f7, type: 3}
    - time: .0166666675
      value: {fileID: 21300000, guid: 0fcfdf5c5599b4362991b09d4f3752aa, type: 3}
    - time: .0333333351
      value: {fileID: 21300000, guid: b6a6288ff41ba4bdbb2ff9d666f164aa, type: 3}
    - time: .0500000007
      value: {fileID: 21300000, guid: 5850373af704c4c73ad8ce91042790e6, type: 3}
    - time: .0666666701
      value: {fileID: 21300000, guid: 4b0f80506b4424316935d31995202007, type: 3}
    - time: .0833333358
      value: {fileID: 21300000, guid: ffcf09e2561e44ebab8ba8cc344f26cd, type: 3}
    - time: .100000001
      value: {fileID: 21300000, guid: 04da2ee626b3c40a69b8ef9b7d2e8869, type: 3}
    - time: .116666667
      value: {fileID: 21300000, guid: 09d4e180fdbca41ff9f8dd4df8a9df81, type: 3}
    - time: .13333334
      value: {fileID: 21300000, guid: 573e23d34b4ae4412a178da972f3c2a2, type: 3}
    - time: .150000006
      value: {fileID: 21300000, guid: 0c7ede527c6184bd59704827ba09e90e, type: 3}
    - time: .166666672
      value: {fileID: 21300000, guid: 47b057b16d5c448c6b7e7d635f137c60, type: 3}
    - time: .183333337
      value: {fileID: 21300000, guid: 534b4620705904fc09aafe90b9985b83, type: 3}
    - time: .200000003
      value: {fileID: 21300000, guid: 141d69fb460524d1d89c473ca0000389, type: 3}
    - time: .216666669
      value: {fileID: 21300000, guid: b77862f65eeba42e497de61ea0c28d2e, type: 3}
    - time: .233333334
      value: {fileID: 21300000, guid: dd018e185beb74aa7864fedeed461124, type: 3}
    - time: .25
      value: {fileID: 21300000, guid: 781bbadb3c8c54825816c257ad2eb0f8, type: 3}
    - time: .266666681
      value: {fileID: 21300000, guid: 3c916a5d3ea604ce2adc2789180445dd, type: 3}
    attribute: m_Sprite
    path: 
    classID: 114
    script: {fileID: -765806418, guid: f5f67c52d1564df4a8936ccd202a3bd8, type: 3}
  m_SampleRate: 60
  m_WrapMode: 0
  m_Bounds:
    m_Center: {x: 0, y: 0, z: 0}
    m_Extent: {x: 0, y: 0, z: 0}
  m_ClipBindingConstant:
    genericBindings:
    - path: 0
      attribute: 2015549526
      script: {fileID: -765806418, guid: f5f67c52d1564df4a8936ccd202a3bd8, type: 3}
      classID: 114
      customType: 0
      isPPtrCurve: 1
    pptrCurveMapping:
    - {fileID: 21300000, guid: c1e0fbf94c84748cdadd9928841720f7, type: 3}
    - {fileID: 21300000, guid: 0fcfdf5c5599b4362991b09d4f3752aa, type: 3}
    - {fileID: 21300000, guid: b6a6288ff41ba4bdbb2ff9d666f164aa, type: 3}
    - {fileID: 21300000, guid: 5850373af704c4c73ad8ce91042790e6, type: 3}
    - {fileID: 21300000, guid: 4b0f80506b4424316935d31995202007, type: 3}
    - {fileID: 21300000, guid: ffcf09e2561e44ebab8ba8cc344f26cd, type: 3}
    - {fileID: 21300000, guid: 04da2ee626b3c40a69b8ef9b7d2e8869, type: 3}
    - {fileID: 21300000, guid: 09d4e180fdbca41ff9f8dd4df8a9df81, type: 3}
    - {fileID: 21300000, guid: 573e23d34b4ae4412a178da972f3c2a2, type: 3}
    - {fileID: 21300000, guid: 0c7ede527c6184bd59704827ba09e90e, type: 3}
    - {fileID: 21300000, guid: 47b057b16d5c448c6b7e7d635f137c60, type: 3}
    - {fileID: 21300000, guid: 534b4620705904fc09aafe90b9985b83, type: 3}
    - {fileID: 21300000, guid: 141d69fb460524d1d89c473ca0000389, type: 3}
    - {fileID: 21300000, guid: b77862f65eeba42e497de61ea0c28d2e, type: 3}
    - {fileID: 21300000, guid: dd018e185beb74aa7864fedeed461124, type: 3}
    - {fileID: 21300000, guid: 781bbadb3c8c54825816c257ad2eb0f8, type: 3}
    - {fileID: 21300000, guid: 3c916a5d3ea604ce2adc2789180445dd, type: 3}
  m_AnimationClipSettings:
    serializedVersion: 2
    m_StartTime: 0
    m_StopTime: .283333361
    m_OrientationOffsetY: 0
    m_Level: 0
    m_CycleOffset: 0
    m_LoopTime: 1
    m_LoopBlend: 0
    m_LoopBlendOrientation: 0
    m_LoopBlendPositionY: 0
    m_LoopBlendPositionXZ: 0
    m_KeepOriginalOrientation: 0
    m_KeepOriginalPositionY: 1
    m_KeepOriginalPositionXZ: 0
    m_HeightFromFeet: 0
    m_Mirror: 0
  m_EditorCurves: []
  m_EulerEditorCurves: []
  m_HasGenericRootTransform: 0
  m_HasMotionFloatCurves: 0
  m_GenerateMotionCurves: 0
  m_Events: []
